…
``` r
colSums(namat)
```

    ##       subType          name         block          type      numLanes 
    ##             4            12           215             9             0 
    ##       project         route        length dateInstalled 
    ##            74          1269             0             0

``` r
nabike <- bike %>% mutate_all(is.na)
print(nabike)
```

    ## # A tibble: 1,631 x 9
    ##    subType name  block type  numLanes project route length dateInstalled
    ##    <lgl>   <lgl> <lgl> <lgl> <lgl>    <lgl>   <lgl> <lgl>  <lgl>        
    ##  1 TRUE    TRUE  TRUE  FALSE FALSE    FALSE   TRUE  FALSE  FALSE        
    ##  2 TRUE    TRUE  TRUE  FALSE FALSE    TRUE    FALSE FALSE  FALSE        
    ##  3 TRUE    TRUE  TRUE  FALSE FALSE    FALSE   TRUE  FALSE  FALSE        
    ##  4 TRUE    FALSE TRUE  FALSE FALSE    TRUE    TRUE  FALSE  FALSE        
    ##  5 FALSE   FALSE FALSE FALSE FALSE    FALSE   TRUE  FALSE  FALSE        
    ##  6 FALSE   FALSE FALSE FALSE FALSE    FALSE   FALSE FALSE  FALSE        
    ##  7 FALSE   FALSE FALSE FALSE FALSE    FALSE   FALSE FALSE  FALSE        
    ##  8 FALSE   FALSE FALSE FALSE FALSE    FALSE   FALSE FALSE  FALSE        
    ##  9 FALSE   TRUE  TRUE  FALSE FALSE    FALSE   TRUE  FALSE  FALSE        
    ## 10 FALSE   TRUE  TRUE  FALSE FALSE    FALSE   TRUE  FALSE  FALSE        
    ## # … with 1,621 more rows
…
    ## # A tibble: 1 x 9
    ##   subType  name block  type numLanes project route length dateInstalled
    ##     <int> <int> <int> <int>    <int>   <int> <int>  <int>         <int>
    ## 1       4    12   215     9        0      74  1269      0             0

##### 3. Filter rows of bike that are NOT missing the `route` variable, assign this to the object `have_route.` Do a table of the `subType` using `table`, including the missing `subType`s Get the same frequency distribution using `group_by(subType)` and `tally()`

``` r
have_route <- bike %>% filter(!is.na(route))
print(have_route)
```

    ## # A tibble: 362 x 9
    ##    subType name    block    type   numLanes project   route length dateInstalled
    ##    <chr>   <chr>   <chr>    <chr>     <dbl> <chr>     <chr>  <dbl>         <dbl>
    ##  1 <NA>    <NA>    <NA>     SIDEP…        1 <NA>      NORT… 1025.           2010
    ##  2 STRALY  WINSTO… 1200 BL… SIGNE…        2 COLLEGET… COLL…  148.           2007
    ##  3 STRALY  WINSTO… 1200 BL… SIGNE…        2 COLLEGET… COLL…  366.           2007
    ##  4 STRALY  WINSTO… 1200 BL… SIGNE…        2 COLLEGET… COLL…  262.           2007
    ##  5 STRPRD  <NA>    <NA>     SIGNE…        1 COLLEGET… COLL…   49.3          2007
    ##  6 STRPRD  <NA>    <NA>     SIGNE…        1 COLLEGET… COLL…   70.0          2007
    ##  7 STRPRD  <NA>    <NA>     SIGNE…        1 COLLEGET… COLL…  765.           2007
    ##  8 STRPRD  <NA>    <NA>     SIGNE…        2 COLLEGET… COLL…  170.           2007
    ##  9 STRPRD  <NA>    <NA>     SIGNE…        2 COLLEGET… COLL… 1724.           2007
    ## 10 STRPRD  ALBEMA… 100 BLK… SIGNE…        1 SOUTHEAS… LITT…  250.           2011
    ## # … with 352 more rows
…
    ## # A tibble: 3 x 2
    ##   subType     n
    ##   <chr>   <int>
    ## 1 STRALY      3
    ## 2 STRPRD    358
    ## 3 <NA>        1

##### 4. Filter rows of bike that have the type `SIDEPATH` or `BIKE LANE` using `%in%`. Call it `side_bike.` Confirm this gives you the same number of results using the `|` and `==`.

``` r
side_bike <- bike %>% filter(type %in% c('SIDEPATH', 'BIKE LANE'))
print(side_bike)
```

    ## # A tibble: 628 x 9
    ##    subType name    block    type   numLanes project   route length dateInstalled
    ##    <chr>   <chr>   <chr>    <chr>     <dbl> <chr>     <chr>  <dbl>         <dbl>
    ##  1 <NA>    <NA>    <NA>     SIDEP…        1 <NA>      NORT… 1025.           2010
    ##  2 <NA>    HUNTIN… <NA>     SIDEP…        1 <NA>      <NA>     0               0
    ##  3 STCLN   EDMOND… 5300 BL… BIKE …        1 OPERATIO… <NA>   181.           2011
    ##  4 STRPRD  <NA>    <NA>     BIKE …        1 MAINTENA… <NA>   696.           2009
    ##  5 STRPRD  ARGONN… 2100 BL… BIKE …        2 ENGINEER… <NA>  1313.              0
    ##  6 STRPRD  AUCHEN… 3500 BL… BIKE …        1 <NA>      <NA>  1342.           2012
    ##  7 STRPRD  BANK ST <NA>     BIKE …        1 SOUTHEAS… <NA>    21.0          2010
    ##  8 STRPRD  BANK ST 3100 BL… BIKE …        2 SOUTHEAS… <NA>    91.8          2010
    ##  9 STRPRD  BANK ST 3100 BL… BIKE …        2 SOUTHEAS… <NA>    92.6          2010
    ## 10 STRPRD  BANK ST 3100 BL… BIKE …        2 SOUTHEAS… <NA>   106.           2010
    ## # … with 618 more rows

``` r
side_bike <- bike %>% filter(type == 'SIDEPATH' | type == 'BIKE LANE')
print(side_bike)
```

    ## # A tibble: 628 x 9
    ##    subType name    block    type   numLanes project   route length dateInstalled
    ##    <chr>   <chr>   <chr>    <chr>     <dbl> <chr>     <chr>  <dbl>         <dbl>
    ##  1 <NA>    <NA>    <NA>     SIDEP…        1 <NA>      NORT… 1025.           2010
    ##  2 <NA>    HUNTIN… <NA>     SIDEP…        1 <NA>      <NA>     0               0
    ##  3 STCLN   EDMOND… 5300 BL… BIKE …        1 OPERATIO… <NA>   181.           2011
    ##  4 STRPRD  <NA>    <NA>     BIKE …        1 MAINTENA… <NA>   696.           2009
    ##  5 STRPRD  ARGONN… 2100 BL… BIKE …        2 ENGINEER… <NA>  1313.              0
    ##  6 STRPRD  AUCHEN… 3500 BL… BIKE …        1 <NA>      <NA>  1342.           2012
    ##  7 STRPRD  BANK ST <NA>     BIKE …        1 SOUTHEAS… <NA>    21.0          2010
    ##  8 STRPRD  BANK ST 3100 BL… BIKE …        2 SOUTHEAS… <NA>    91.8          2010
    ##  9 STRPRD  BANK ST 3100 BL… BIKE …        2 SOUTHEAS… <NA>    92.6          2010
    ## 10 STRPRD  BANK ST 3100 BL… BIKE …        2 SOUTHEAS… <NA>   106.           2010
    ## # … with 618 more rows
…
``` r
print(broom::tidy(tab))
```

    ## # A tibble: 21 x 3
    ##    bike_type       number_of_lanes     n
    ##    <chr>           <chr>           <int>
    ##  1 BIKE BOULEVARD  0                   0
    ##  2 BIKE LANE       0                  20
    ##  3 CONTRAFLOW      0                   0
    ##  4 SHARED BUS BIKE 0                   0
    ##  5 SHARROW         0                   0
    ##  6 SIDEPATH        0                   0
    ##  7 SIGNED ROUTE    0                   0
    ##  8 BIKE BOULEVARD  1                   1
    ##  9 BIKE LANE       1                 411
    ## 10 CONTRAFLOW      1                   7
    ## # … with 11 more rows
…
    ## 
    ##    01    02    03    04    05    06    07    08    09    10    11    12    13 
    ##  6619  3547  2541  1731   465  4505  4903 11445 11833  1704  3592  8864  9459 
    ##    14    15    16    17    18    19    20    21    22    23    24    25    26 
    ##  3113 18655 11286  1454  2310  3833 11927  3181  1719  2567  6116 14841 25704 
    ##    27    28    50 
    ## 50158 10219     7

``` r
ward_table <- tax %>% group_by(Ward) %>% tally()
print(ward_table)
```

    ## # A tibble: 29 x 2
    ##    Ward      n
    ##    <chr> <int>
    ##  1 01     6619
    ##  2 02     3547
    ##  3 03     2541
    ##  4 04     1731
    ##  5 05      465
    ##  6 06     4505
    ##  7 07     4903
    ##  8 08    11445
    ##  9 09    11833
    ## 10 10     1704
    ## # … with 19 more rows

``` r
ward_table <- tax %>% group_by(Ward) %>%
  summarise(number_of_observations = n())
print(ward_table)
```

    ## # A tibble: 29 x 2
    ##    Ward  number_of_observations
    ##    <chr>                  <int>
    ##  1 01                      6619
    ##  2 02                      3547
    ##  3 03                      2541
    ##  4 04                      1731
    ##  5 05                       465
    ##  6 06                      4505
    ##  7 07                      4903
    ##  8 08                     11445
    ##  9 09                     11833
    ## 10 10                      1704
    ## # … with 19 more rows

###### 8.2 what is the mean state tax per Ward? use `group_by` and \`summarize

``` r
mean_statetax <- tax %>% group_by(Ward) %>%
  summarise(mean_statetax = mean(StateTax, na.rm = TRUE))
print(mean_statetax)
```

    ## # A tibble: 29 x 2
    ##    Ward  mean_statetax
    ##    <chr>         <dbl>
    ##  1 01            301. 
    ##  2 02            369. 
    ##  3 03            879. 
    ##  4 04           2442. 
    ##  5 05            356. 
    ##  6 06            178. 
    ##  7 07             95.9
    ##  8 08             51.7
    ##  9 09             86.5
    ## 10 10             74.1
    ## # … with 19 more rows
…
``` r
tax = tax %>% mutate(AmountDue = as.numeric(str_replace(
    AmountDue, fixed("$"), "")))
head(tax$AmountDue)
```

    ## [1]   19.70 2818.51   28.02      NA 1975.88 3935.38

``` r
max_due <- tax %>% group_by(Ward) %>% 
  summarise(max_amount_due = max(AmountDue, na.rm = TRUE))
print(max_due)
```

    ## # A tibble: 29 x 2
    ##    Ward  max_amount_due
    ##    <chr>          <dbl>
    ##  1 01           627349.
    ##  2 02          1452842.
    ##  3 03          1362318.
    ##  4 04          3688217.
    ##  5 05           951087.
    ##  6 06           414725.
    ##  7 07          1239508.
    ##  8 08           396504.
    ##  9 09           155496.
    ## 10 10           169659.
    ## # … with 19 more rows

###### 8.4 what is the 75th percentile of city and state tax paid by Ward? (`quantile`)

``` r
percentile_city <- tax %>% group_by(Ward) %>% 
  summarise(percentile_city = quantile(
    CityTax, prob = 0.75, na.rm = TRUE))
print(percentile_city)
```

    ## # A tibble: 29 x 2
    ##    Ward  percentile_city
    ##    <chr>           <dbl>
    ##  1 01              6420.
    ##  2 02              6603.
    ##  3 03              6209.
    ##  4 04             11304.
    ##  5 05              2566.
    ##  6 06              3969.
    ##  7 07               869.
    ##  8 08              1479.
    ##  9 09              2653.
    ## 10 10              1664.
    ## # … with 19 more rows

``` r
percential_state <- tax %>% group_by(Ward) %>%
  summarise(percential_state = quantile(
    StateTax, prob = 0.75, na.rm = TRUE))
print(percential_state)
```

    ## # A tibble: 29 x 2
    ##    Ward  percential_state
    ##    <chr>            <dbl>
    ##  1 01               320. 
    ##  2 02               329. 
    ##  3 03               311. 
    ##  4 04               582. 
    ##  5 05               128. 
    ##  6 06               198. 
    ##  7 07                43.3
    ##  8 08                73.7
    ##  9 09               132. 
    ## 10 10                82.9
    ## # … with 19 more rows

``` r
percentile_city_state <- tax %>% 
  group_by(Ward) %>% summarise(
    percentile_city = quantile(CityTax, prob = 0.75, na.rm =TRUE),
    percentile_state = quantile(StateTax, prob = 0.75, na.rm =TRUE))
print(percentile_city_state)
```

    ## # A tibble: 29 x 3
    ##    Ward  percentile_city percentile_state
    ##    <chr>           <dbl>            <dbl>
    ##  1 01              6420.            320. 
    ##  2 02              6603.            329. 
    ##  3 03              6209.            311. 
    ##  4 04             11304.            582. 
    ##  5 05              2566.            128. 
    ##  6 06              3969.            198. 
    ##  7 07               869.             43.3
    ##  8 08              1479.             73.7
    ##  9 09              2653.            132. 
    ## 10 10              1664.             82.9
    ## # … with 19 more rows
…
